<svg width="80" height="80" viewBox="0 0 80 80" fill="none" xmlns="http://www.w3.org/2000/svg">
<path d="M78.8116 27.1556C79.4684 27.1556 80 26.6234 80 25.9673V16.5355C80 13.7615 77.7429 11.5044 74.9689 11.5044H65.4272V9.79846C65.4272 6.4696 62.7191 3.76147 59.3903 3.76147H51.4014C48.1793 1.47205 44.2438 0.125 39.9994 0.125C35.755 0.125 31.8195 1.47205 28.5974 3.76147H20.6085C17.2797 3.76147 14.5709 6.4696 14.5709 9.79846V11.5044H5.0293C2.25586 11.5044 0 13.7609 0 16.5343V61.1095C0 63.8829 2.25586 66.1388 5.0293 66.1388H14.5709V67.8435C14.5709 71.1724 17.2797 73.8805 20.6079 73.8805H59.3896C62.7191 73.8805 65.4272 71.1724 65.4272 67.8435V66.1388H74.9689C77.7429 66.1388 80 63.8817 80 61.1077V30.7201C80 30.064 79.4678 29.5317 78.8116 29.5317C78.1555 29.5317 77.6239 30.064 77.6239 30.7201V61.1083C77.6239 62.5719 76.4325 63.7627 74.9689 63.7627H65.4272V53.9409H72.0209C72.677 53.9409 73.2086 53.4093 73.2086 52.7532C73.2086 52.097 72.677 51.5648 72.0209 51.5648H65.4272V48.5674H72.0209C72.677 48.5674 73.2086 48.0358 73.2086 47.3796C73.2086 46.7235 72.677 46.1913 72.0209 46.1913H65.4272V43.3812H72.0209C72.677 43.3812 73.2086 42.849 73.2086 42.1929C73.2086 41.5367 72.677 41.0051 72.0209 41.0051H65.4272V13.8811H74.9689C76.4325 13.8811 77.6239 15.0719 77.6239 16.5355V25.9673C77.6239 26.6234 78.1555 27.1556 78.8116 27.1556ZM57.3547 19.8564C57.3547 24.3779 55.6158 28.5009 52.7728 31.5923C51.0474 28.5387 48.313 26.2444 45.0946 25.0573C47.8076 23.355 49.6161 20.3386 49.6161 16.906C49.6161 11.6033 45.3021 7.28931 39.9994 7.28931C34.6967 7.28931 30.3827 11.6039 30.3827 16.906C30.3827 20.3386 32.1912 23.355 34.9048 25.0573C31.6852 26.245 28.9514 28.5387 27.2272 31.5935C24.3835 28.5015 22.644 24.3785 22.644 19.8564C22.644 10.2867 30.4297 2.5011 39.9994 2.5011C49.5691 2.5011 57.3547 10.2867 57.3547 19.8564ZM39.9994 24.1472C36.0071 24.1472 32.7588 20.8989 32.7588 16.906C32.7588 12.9137 36.0071 9.66541 39.9994 9.66541C43.9917 9.66541 47.24 12.9137 47.24 16.906C47.24 20.8989 43.9917 24.1472 39.9994 24.1472ZM40 26.5239C44.6796 26.5239 48.9014 29.1509 50.9827 33.2836C47.9889 35.7372 44.1632 37.2118 39.9994 37.2118C35.8362 37.2118 32.0111 35.7378 29.0173 33.2842C31.0974 29.1509 35.3186 26.5239 40 26.5239ZM63.0511 67.8435C63.0511 69.8625 61.4087 71.5044 59.3903 71.5044H20.6085C18.5895 71.5044 16.9476 69.8625 16.9476 67.8435V62.0116C16.9476 61.3555 16.4154 60.8232 15.7593 60.8232C15.1031 60.8232 14.5709 61.3555 14.5709 62.0116V63.7627H5.0293C3.56628 63.7627 2.3761 62.5725 2.3761 61.1095V16.5343C2.3761 15.0713 3.56628 13.8805 5.0293 13.8805H14.5709V41.0045H7.97791C7.32117 41.0045 6.78955 41.5367 6.78955 42.1929C6.78955 42.849 7.32117 43.3812 7.97791 43.3812H14.5709V46.1913H7.97791C7.32117 46.1913 6.78955 46.7229 6.78955 47.3796C6.78955 48.0358 7.32117 48.5674 7.97791 48.5674H14.5709V51.5648H7.97791C7.32117 51.5648 6.78955 52.0964 6.78955 52.7526C6.78955 53.4087 7.32117 53.9409 7.97791 53.9409H14.5709V57.2588C14.5709 57.9149 15.1025 58.4471 15.7593 58.4471C16.4154 58.4471 16.947 57.9149 16.947 57.2588V9.79846C16.947 7.78003 18.5895 6.13757 20.6079 6.13757H25.8325C22.3901 9.69104 20.2679 14.5305 20.2679 19.8564C20.2679 30.7366 29.1193 39.5879 39.9994 39.5879C50.8795 39.5879 59.7308 30.7366 59.7308 19.8564C59.7308 14.5305 57.6086 9.69104 54.1663 6.13757H59.3896C61.4087 6.13757 63.0511 7.78003 63.0511 9.79846V67.8435Z" fill="url(#paint0_linear)"/>
<path d="M56.849 48.7683H23.1503C22.4941 48.7683 21.9619 49.3005 21.9619 49.9567C21.9619 50.6128 22.4941 51.145 23.1503 51.145H56.8496C57.5057 51.145 58.0374 50.6128 58.0374 49.9567C58.0374 49.3005 57.5057 48.7683 56.849 48.7683Z" fill="url(#paint1_linear)"/>
<path d="M56.849 53.9563H23.1503C22.4941 53.9563 21.9619 54.4879 21.9619 55.144C21.9619 55.8002 22.4941 56.3324 23.1503 56.3324H56.8496C57.5057 56.3324 58.0374 55.8002 58.0374 55.144C58.0374 54.4879 57.5057 53.9563 56.849 53.9563Z" fill="url(#paint2_linear)"/>
<path d="M31.6903 59.3281H23.1503C22.4941 59.3281 21.9619 59.8604 21.9619 60.5165C21.9619 61.1726 22.4941 61.7042 23.1503 61.7042H31.6903C32.347 61.7042 32.8787 61.1726 32.8787 60.5165C32.8787 59.8604 32.347 59.3281 31.6903 59.3281Z" fill="url(#paint3_linear)"/>
<defs>
<linearGradient id="paint0_linear" x1="40" y1="0.125" x2="40" y2="73.8805" gradientUnits="userSpaceOnUse">
<stop stop-color="#FE5555"/>
<stop offset="1" stop-color="#D22727"/>
</linearGradient>
<linearGradient id="paint1_linear" x1="39.9996" y1="48.7683" x2="39.9996" y2="51.145" gradientUnits="userSpaceOnUse">
<stop stop-color="#FE5555"/>
<stop offset="1" stop-color="#D22727"/>
</linearGradient>
<linearGradient id="paint2_linear" x1="39.9996" y1="53.9563" x2="39.9996" y2="56.3324" gradientUnits="userSpaceOnUse">
<stop stop-color="#FE5555"/>
<stop offset="1" stop-color="#D22727"/>
</linearGradient>
<linearGradient id="paint3_linear" x1="27.4203" y1="59.3281" x2="27.4203" y2="61.7042" gradientUnits="userSpaceOnUse">
<stop stop-color="#FE5555"/>
<stop offset="1" stop-color="#D22727"/>
</linearGradient>
</defs>
</svg>
